Identity added: /nethome/jli458/.ssh/id_rsa (/nethome/jli458/.ssh/id_rsa)
Executing test case [1]
[1]: Naive | [2]: Non-divergent | [3]: Sequential Add. | [4]: First add | [5]: Unroll last warp | [6]: Complete unroll | [7] Multiple Adds
Execution time: 7.523193 ms
Equivalent performance: 8.920263 GB/s
Answer is correct
Reference answer is 0.996214
GPU answer is 0.996213
Executing test case [2]
[1]: Naive | [2]: Non-divergent | [3]: Sequential Add. | [4]: First add | [5]: Unroll last warp | [6]: Complete unroll | [7] Multiple Adds
Execution time: 5.336871 ms
Equivalent performance: 12.574572 GB/s
Answer is correct
Reference answer is 0.996214
GPU answer is 0.996213
Executing test case [3]
[1]: Naive | [2]: Non-divergent | [3]: Sequential Add. | [4]: First add | [5]: Unroll last warp | [6]: Complete unroll | [7] Multiple Adds
Execution time: 2.988819 ms
Equivalent performance: 22.453304 GB/s
Answer is correct
Reference answer is 0.996214
GPU answer is 0.996213
Executing test case [4]
[1]: Naive | [2]: Non-divergent | [3]: Sequential Add. | [4]: First add | [5]: Unroll last warp | [6]: Complete unroll | [7] Multiple Adds
Execution time: 1.650528 ms
Equivalent performance: 40.659028 GB/s
Answer is correct
Reference answer is 0.996214
GPU answer is 0.996215
Executing test case [5]
[1]: Naive | [2]: Non-divergent | [3]: Sequential Add. | [4]: First add | [5]: Unroll last warp | [6]: Complete unroll | [7] Multiple Adds
Execution time: 1.036294 ms
Equivalent performance: 64.758496 GB/s
Answer is correct
Reference answer is 0.996214
GPU answer is 0.996215
Executing test case [6]
[1]: Naive | [2]: Non-divergent | [3]: Sequential Add. | [4]: First add | [5]: Unroll last warp | [6]: Complete unroll | [7] Multiple Adds
Execution time: 1.217050 ms
Equivalent performance: 55.140616 GB/s
Answer is correct
Reference answer is 0.996214
GPU answer is 0.996215
Executing test case [7]
[1]: Naive | [2]: Non-divergent | [3]: Sequential Add. | [4]: First add | [5]: Unroll last warp | [6]: Complete unroll | [7] Multiple Adds
Execution time: 0.660922 ms
Equivalent performance: 101.538304 GB/s
Answer is correct
Reference answer is 0.996214
GPU answer is 0.996214
